<?xml version="1.0" ?>
<svg viewBox="0 0 32 32" xmlns="http://www.w3.org/2000/svg"
>

    <defs>
        <style>
            .cls-1{fill:none;stroke:#000;stroke-linecap:round;stroke-linejoin:round;stroke-width:2px;}
        </style>
    </defs>
    <title />
    <g data-name="16-heart" id="_16-heart">
        <path class="cls-1"
            d="M28.43,4.63A8.66,8.66,0,0,0,16,4.63a8.66,8.66,0,0,0-12.43,0,9.1,9.1,0,0,0,0,12.69L16,30,28.43,17.31A9.1,9.1,0,0,0,28.43,4.63Z" />
        <path class="cls-1" d="M26,11a4,4,0,0,0-4-4" />
    </g>
</svg>